info face="Untitled1" size=45 bold=1 italic=0 charset="" unicode=0 stretchH=100 smooth=1 aa=1 padding=0,0,0,0 spacing=0,0
common lineHeight=43 base=40 scaleW=256 scaleH=64 pages=1 packed=0
page id=0 file="fontMedium.png"
chars count=13
char id=10      x=0    y=0    width=0    height=0    xoffset=0    yoffset=0    xadvance=0    page=0    chnl=0 
char id=48      x=66   y=0    width=14   height=39   xoffset=2    yoffset=2    xadvance=16   page=0    chnl=0 
char id=49      x=80   y=0    width=9    height=38   xoffset=4    yoffset=2    xadvance=16   page=0    chnl=0 
char id=50      x=89   y=0    width=14   height=38   xoffset=2    yoffset=2    xadvance=16   page=0    chnl=0 
char id=51      x=0    y=0    width=13   height=39   xoffset=2    yoffset=2    xadvance=16   page=0    chnl=0 
char id=52      x=103  y=0    width=15   height=38   xoffset=1    yoffset=2    xadvance=16   page=0    chnl=0 
char id=53      x=13   y=0    width=13   height=39   xoffset=2    yoffset=2    xadvance=16   page=0    chnl=0 
char id=54      x=26   y=0    width=14   height=39   xoffset=2    yoffset=2    xadvance=16   page=0    chnl=0 
char id=55      x=118  y=0    width=13   height=38   xoffset=2    yoffset=2    xadvance=16   page=0    chnl=0 
char id=56      x=40   y=0    width=13   height=39   xoffset=2    yoffset=2    xadvance=16   page=0    chnl=0 
char id=57      x=53   y=0    width=13   height=39   xoffset=2    yoffset=2    xadvance=16   page=0    chnl=0 
char id=58      x=144  y=0    width=5    height=23   xoffset=2    yoffset=11   xadvance=8    page=0    chnl=0 
char id=65      x=131  y=0    width=13   height=30   xoffset=2    yoffset=10   xadvance=18   page=0    chnl=0 
kernings count=0
