info face="Untitled1" size=36 bold=1 italic=0 charset="" unicode=0 stretchH=100 smooth=1 aa=1 padding=0,0,0,0 spacing=0,0
common lineHeight=34 base=32 scaleW=128 scaleH=128 pages=1 packed=0
page id=0 file="fontLarge.png"
chars count=13
char id=10      x=0    y=0    width=0    height=0    xoffset=0    yoffset=0    xadvance=0    page=0    chnl=0 
char id=48      x=55   y=0    width=12   height=31   xoffset=1    yoffset=2    xadvance=13   page=0    chnl=0 
char id=49      x=67   y=0    width=8    height=30   xoffset=3    yoffset=2    xadvance=13   page=0    chnl=0 
char id=50      x=75   y=0    width=11   height=30   xoffset=2    yoffset=2    xadvance=13   page=0    chnl=0 
char id=51      x=0    y=0    width=11   height=31   xoffset=2    yoffset=2    xadvance=13   page=0    chnl=0 
char id=52      x=86   y=0    width=13   height=30   xoffset=1    yoffset=2    xadvance=13   page=0    chnl=0 
char id=53      x=11   y=0    width=11   height=31   xoffset=2    yoffset=2    xadvance=13   page=0    chnl=0 
char id=54      x=22   y=0    width=11   height=31   xoffset=2    yoffset=2    xadvance=13   page=0    chnl=0 
char id=55      x=99   y=0    width=12   height=30   xoffset=1    yoffset=2    xadvance=13   page=0    chnl=0 
char id=56      x=33   y=0    width=11   height=31   xoffset=2    yoffset=2    xadvance=13   page=0    chnl=0 
char id=57      x=44   y=0    width=11   height=31   xoffset=2    yoffset=2    xadvance=13   page=0    chnl=0 
char id=58      x=122  y=0    width=4    height=19   xoffset=2    yoffset=8    xadvance=7    page=0    chnl=0 
char id=65      x=111  y=0    width=11   height=25   xoffset=2    yoffset=7    xadvance=15   page=0    chnl=0 
kernings count=0
